Id,Label,timeset,robotsays,assets,dialog_nodes,values
0,Willkommen,,"Hallo, ich bin Pepper der Autoverkaeufer. Ich hoffe ich kann ihnen bei ihrem anliegen weiterhelfen! Ich hoffe ihre Anreise war unproblematisch ",welcome.jpg,Willkommen,"Hallo, ich bin Pepper der Autoverkaeufer. Ich hoffe ich kann ihnen bei ihrem anliegen weiterhelfen! Ich hoffe ihre Anreise war unproblematisch "
1,reise gut,,das freut mich zu hoeren!,,reise gut,das freut mich zu hoeren!
2,reise schlecht,,"oh, das tut mir leid. Hoffentlich kann ich trotzdem verkaufen ",,reise schlecht,"oh, das tut mir leid. Hoffentlich kann ich trotzdem verkaufen "
3,autotyp,,"Zuerst muss ich von ihnen wissen, welche art von auto sie suchen. Ein Stadt oder ein Gelaendewagen?",civic.jpg;jeep.jpg,autotyp,"Zuerst muss ich von ihnen wissen, welche art von auto sie suchen. Ein Stadt oder ein Gelaendewagen?"
4,gelaendewagen,,"gute wahl, wir haben ein paar tolle jeeps im angebot! Spielt die Marke eine Rolle? ",,gelaedewagen,"gute wahl, wir haben ein paar tolle jeeps im angebot! Spielt die Marke eine Rolle? "
5,stadtauto,,"ja, das ist sicher besser fuer die umwelt ",,stadtauto,"ja, das ist sicher besser fuer die umwelt "
